<?xml version="1.0" encoding="utf-8" standalone="no"?>
<!DOCTYPE svg PUBLIC "-//W3C//DTD SVG 1.1//EN"
  "http://www.w3.org/Graphics/SVG/1.1/DTD/svg11.dtd">
<svg xmlns:xlink="http://www.w3.org/1999/xlink" width="288pt" height="216pt" viewBox="0 0 288 216" xmlns="http://www.w3.org/2000/svg" version="1.1">
 <metadata>
  <rdf:RDF xmlns:dc="http://purl.org/dc/elements/1.1/" xmlns:cc="http://creativecommons.org/ns#" xmlns:rdf="http://www.w3.org/1999/02/22-rdf-syntax-ns#">
   <cc:Work>
    <dc:type rdf:resource="http://purl.org/dc/dcmitype/StillImage"/>
    <dc:date>2025-01-29T15:45:51.858454</dc:date>
    <dc:format>image/svg+xml</dc:format>
    <dc:creator>
     <cc:Agent>
      <dc:title>Matplotlib v3.9.3, https://matplotlib.org/</dc:title>
     </cc:Agent>
    </dc:creator>
   </cc:Work>
  </rdf:RDF>
 </metadata>
 <defs>
  <style type="text/css">*{stroke-linejoin: round; stroke-linecap: butt}</style>
 </defs>
 <g id="figure_1">
  <g id="patch_1">
   <path d="M 0 216 
L 288 216 
L 288 0 
L 0 0 
z
" style="fill: #ffffff"/>
  </g>
  <g id="axes_1">
   <g id="patch_2">
    <path d="M 51.32 174.04 
L 277.2 174.04 
L 277.2 14.533119 
L 51.32 14.533119 
z
" style="fill: #ffffff"/>
   </g>
   <g id="matplotlib.axis_1">
    <g id="xtick_1">
     <g id="line2d_1">
      <defs>
       <path id="mc615409b14" d="M 0 0 
L 0 3.5 
" style="stroke: #000000; stroke-width: 0.8"/>
      </defs>
      <g>
       <use xlink:href="#mc615409b14" x="61.587273" y="174.04" style="stroke: #000000; stroke-width: 0.8"/>
      </g>
     </g>
     <g id="text_1">
      <!-- 0 -->
      <g transform="translate(58.406023 188.638438) scale(0.1 -0.1)">
       <defs>
        <path id="DejaVuSans-30" d="M 2034 4250 
Q 1547 4250 1301 3770 
Q 1056 3291 1056 2328 
Q 1056 1369 1301 889 
Q 1547 409 2034 409 
Q 2525 409 2770 889 
Q 3016 1369 3016 2328 
Q 3016 3291 2770 3770 
Q 2525 4250 2034 4250 
z
M 2034 4750 
Q 2819 4750 3233 4129 
Q 3647 3509 3647 2328 
Q 3647 1150 3233 529 
Q 2819 -91 2034 -91 
Q 1250 -91 836 529 
Q 422 1150 422 2328 
Q 422 3509 836 4129 
Q 1250 4750 2034 4750 
z
" transform="scale(0.015625)"/>
       </defs>
       <use xlink:href="#DejaVuSans-30"/>
      </g>
     </g>
    </g>
    <g id="xtick_2">
     <g id="line2d_2">
      <g>
       <use xlink:href="#mc615409b14" x="121.629803" y="174.04" style="stroke: #000000; stroke-width: 0.8"/>
      </g>
     </g>
     <g id="text_2">
      <!-- 0.05 -->
      <g transform="translate(110.496991 188.638438) scale(0.1 -0.1)">
       <defs>
        <path id="DejaVuSans-2e" d="M 684 794 
L 1344 794 
L 1344 0 
L 684 0 
L 684 794 
z
" transform="scale(0.015625)"/>
        <path id="DejaVuSans-35" d="M 691 4666 
L 3169 4666 
L 3169 4134 
L 1269 4134 
L 1269 2991 
Q 1406 3038 1543 3061 
Q 1681 3084 1819 3084 
Q 2600 3084 3056 2656 
Q 3513 2228 3513 1497 
Q 3513 744 3044 326 
Q 2575 -91 1722 -91 
Q 1428 -91 1123 -41 
Q 819 9 494 109 
L 494 744 
Q 775 591 1075 516 
Q 1375 441 1709 441 
Q 2250 441 2565 725 
Q 2881 1009 2881 1497 
Q 2881 1984 2565 2268 
Q 2250 2553 1709 2553 
Q 1456 2553 1204 2497 
Q 953 2441 691 2322 
L 691 4666 
z
" transform="scale(0.015625)"/>
       </defs>
       <use xlink:href="#DejaVuSans-30"/>
       <use xlink:href="#DejaVuSans-2e" x="63.623047"/>
       <use xlink:href="#DejaVuSans-30" x="95.410156"/>
       <use xlink:href="#DejaVuSans-35" x="159.033203"/>
      </g>
     </g>
    </g>
    <g id="xtick_3">
     <g id="line2d_3">
      <g>
       <use xlink:href="#mc615409b14" x="181.672334" y="174.04" style="stroke: #000000; stroke-width: 0.8"/>
      </g>
     </g>
     <g id="text_3">
      <!-- 0.1 -->
      <g transform="translate(173.720771 188.638438) scale(0.1 -0.1)">
       <defs>
        <path id="DejaVuSans-31" d="M 794 531 
L 1825 531 
L 1825 4091 
L 703 3866 
L 703 4441 
L 1819 4666 
L 2450 4666 
L 2450 531 
L 3481 531 
L 3481 0 
L 794 0 
L 794 531 
z
" transform="scale(0.015625)"/>
       </defs>
       <use xlink:href="#DejaVuSans-30"/>
       <use xlink:href="#DejaVuSans-2e" x="63.623047"/>
       <use xlink:href="#DejaVuSans-31" x="95.410156"/>
      </g>
     </g>
    </g>
    <g id="xtick_4">
     <g id="line2d_4">
      <g>
       <use xlink:href="#mc615409b14" x="241.714864" y="174.04" style="stroke: #000000; stroke-width: 0.8"/>
      </g>
     </g>
     <g id="text_4">
      <!-- 0.15 -->
      <g transform="translate(230.582052 188.638438) scale(0.1 -0.1)">
       <use xlink:href="#DejaVuSans-30"/>
       <use xlink:href="#DejaVuSans-2e" x="63.623047"/>
       <use xlink:href="#DejaVuSans-31" x="95.410156"/>
       <use xlink:href="#DejaVuSans-35" x="159.033203"/>
      </g>
     </g>
    </g>
    <g id="text_5">
     <!-- x label (kV) -->
     <g transform="translate(135.812344 202.316563) scale(0.1 -0.1)">
      <defs>
       <path id="DejaVuSans-78" d="M 3513 3500 
L 2247 1797 
L 3578 0 
L 2900 0 
L 1881 1375 
L 863 0 
L 184 0 
L 1544 1831 
L 300 3500 
L 978 3500 
L 1906 2253 
L 2834 3500 
L 3513 3500 
z
" transform="scale(0.015625)"/>
       <path id="DejaVuSans-20" transform="scale(0.015625)"/>
       <path id="DejaVuSans-6c" d="M 603 4863 
L 1178 4863 
L 1178 0 
L 603 0 
L 603 4863 
z
" transform="scale(0.015625)"/>
       <path id="DejaVuSans-61" d="M 2194 1759 
Q 1497 1759 1228 1600 
Q 959 1441 959 1056 
Q 959 750 1161 570 
Q 1363 391 1709 391 
Q 2188 391 2477 730 
Q 2766 1069 2766 1631 
L 2766 1759 
L 2194 1759 
z
M 3341 1997 
L 3341 0 
L 2766 0 
L 2766 531 
Q 2569 213 2275 61 
Q 1981 -91 1556 -91 
Q 1019 -91 701 211 
Q 384 513 384 1019 
Q 384 1609 779 1909 
Q 1175 2209 1959 2209 
L 2766 2209 
L 2766 2266 
Q 2766 2663 2505 2880 
Q 2244 3097 1772 3097 
Q 1472 3097 1187 3025 
Q 903 2953 641 2809 
L 641 3341 
Q 956 3463 1253 3523 
Q 1550 3584 1831 3584 
Q 2591 3584 2966 3190 
Q 3341 2797 3341 1997 
z
" transform="scale(0.015625)"/>
       <path id="DejaVuSans-62" d="M 3116 1747 
Q 3116 2381 2855 2742 
Q 2594 3103 2138 3103 
Q 1681 3103 1420 2742 
Q 1159 2381 1159 1747 
Q 1159 1113 1420 752 
Q 1681 391 2138 391 
Q 2594 391 2855 752 
Q 3116 1113 3116 1747 
z
M 1159 2969 
Q 1341 3281 1617 3432 
Q 1894 3584 2278 3584 
Q 2916 3584 3314 3078 
Q 3713 2572 3713 1747 
Q 3713 922 3314 415 
Q 2916 -91 2278 -91 
Q 1894 -91 1617 61 
Q 1341 213 1159 525 
L 1159 0 
L 581 0 
L 581 4863 
L 1159 4863 
L 1159 2969 
z
" transform="scale(0.015625)"/>
       <path id="DejaVuSans-65" d="M 3597 1894 
L 3597 1613 
L 953 1613 
Q 991 1019 1311 708 
Q 1631 397 2203 397 
Q 2534 397 2845 478 
Q 3156 559 3463 722 
L 3463 178 
Q 3153 47 2828 -22 
Q 2503 -91 2169 -91 
Q 1331 -91 842 396 
Q 353 884 353 1716 
Q 353 2575 817 3079 
Q 1281 3584 2069 3584 
Q 2775 3584 3186 3129 
Q 3597 2675 3597 1894 
z
M 3022 2063 
Q 3016 2534 2758 2815 
Q 2500 3097 2075 3097 
Q 1594 3097 1305 2825 
Q 1016 2553 972 2059 
L 3022 2063 
z
" transform="scale(0.015625)"/>
       <path id="DejaVuSans-28" d="M 1984 4856 
Q 1566 4138 1362 3434 
Q 1159 2731 1159 2009 
Q 1159 1288 1364 580 
Q 1569 -128 1984 -844 
L 1484 -844 
Q 1016 -109 783 600 
Q 550 1309 550 2009 
Q 550 2706 781 3412 
Q 1013 4119 1484 4856 
L 1984 4856 
z
" transform="scale(0.015625)"/>
       <path id="DejaVuSans-6b" d="M 581 4863 
L 1159 4863 
L 1159 1991 
L 2875 3500 
L 3609 3500 
L 1753 1863 
L 3688 0 
L 2938 0 
L 1159 1709 
L 1159 0 
L 581 0 
L 581 4863 
z
" transform="scale(0.015625)"/>
       <path id="DejaVuSans-56" d="M 1831 0 
L 50 4666 
L 709 4666 
L 2188 738 
L 3669 4666 
L 4325 4666 
L 2547 0 
L 1831 0 
z
" transform="scale(0.015625)"/>
       <path id="DejaVuSans-29" d="M 513 4856 
L 1013 4856 
Q 1481 4119 1714 3412 
Q 1947 2706 1947 2009 
Q 1947 1309 1714 600 
Q 1481 -109 1013 -844 
L 513 -844 
Q 928 -128 1133 580 
Q 1338 1288 1338 2009 
Q 1338 2731 1133 3434 
Q 928 4138 513 4856 
z
" transform="scale(0.015625)"/>
      </defs>
      <use xlink:href="#DejaVuSans-78"/>
      <use xlink:href="#DejaVuSans-20" x="59.179688"/>
      <use xlink:href="#DejaVuSans-6c" x="90.966797"/>
      <use xlink:href="#DejaVuSans-61" x="118.75"/>
      <use xlink:href="#DejaVuSans-62" x="180.029297"/>
      <use xlink:href="#DejaVuSans-65" x="243.505859"/>
      <use xlink:href="#DejaVuSans-6c" x="305.029297"/>
      <use xlink:href="#DejaVuSans-20" x="332.8125"/>
      <use xlink:href="#DejaVuSans-28" x="364.599609"/>
      <use xlink:href="#DejaVuSans-6b" x="403.613281"/>
      <use xlink:href="#DejaVuSans-56" x="461.523438"/>
      <use xlink:href="#DejaVuSans-29" x="529.931641"/>
     </g>
    </g>
   </g>
   <g id="matplotlib.axis_2">
    <g id="ytick_1">
     <g id="line2d_5">
      <defs>
       <path id="m70c43d4c7d" d="M 0 0 
L -3.5 0 
" style="stroke: #000000; stroke-width: 0.8"/>
      </defs>
      <g>
       <use xlink:href="#m70c43d4c7d" x="51.32" y="149.022961" style="stroke: #000000; stroke-width: 0.8"/>
      </g>
     </g>
     <g id="text_6">
      <!-- -1 -->
      <g transform="translate(34.349688 152.82218) scale(0.1 -0.1)">
       <defs>
        <path id="DejaVuSans-2d" d="M 313 2009 
L 1997 2009 
L 1997 1497 
L 313 1497 
L 313 2009 
z
" transform="scale(0.015625)"/>
       </defs>
       <use xlink:href="#DejaVuSans-2d"/>
       <use xlink:href="#DejaVuSans-31" x="36.083984"/>
      </g>
     </g>
    </g>
    <g id="ytick_2">
     <g id="line2d_6">
      <g>
       <use xlink:href="#m70c43d4c7d" x="51.32" y="122.169331" style="stroke: #000000; stroke-width: 0.8"/>
      </g>
     </g>
     <g id="text_7">
      <!-- -0.5 -->
      <g transform="translate(24.809063 125.96855) scale(0.1 -0.1)">
       <use xlink:href="#DejaVuSans-2d"/>
       <use xlink:href="#DejaVuSans-30" x="36.083984"/>
       <use xlink:href="#DejaVuSans-2e" x="99.707031"/>
       <use xlink:href="#DejaVuSans-35" x="131.494141"/>
      </g>
     </g>
    </g>
    <g id="ytick_3">
     <g id="line2d_7">
      <g>
       <use xlink:href="#m70c43d4c7d" x="51.32" y="95.315701" style="stroke: #000000; stroke-width: 0.8"/>
      </g>
     </g>
     <g id="text_8">
      <!-- 0 -->
      <g transform="translate(37.9575 99.11492) scale(0.1 -0.1)">
       <use xlink:href="#DejaVuSans-30"/>
      </g>
     </g>
    </g>
    <g id="ytick_4">
     <g id="line2d_8">
      <g>
       <use xlink:href="#m70c43d4c7d" x="51.32" y="68.462071" style="stroke: #000000; stroke-width: 0.8"/>
      </g>
     </g>
     <g id="text_9">
      <!-- 0.5 -->
      <g transform="translate(28.416875 72.26129) scale(0.1 -0.1)">
       <use xlink:href="#DejaVuSans-30"/>
       <use xlink:href="#DejaVuSans-2e" x="63.623047"/>
       <use xlink:href="#DejaVuSans-35" x="95.410156"/>
      </g>
     </g>
    </g>
    <g id="ytick_5">
     <g id="line2d_9">
      <g>
       <use xlink:href="#m70c43d4c7d" x="51.32" y="41.608441" style="stroke: #000000; stroke-width: 0.8"/>
      </g>
     </g>
     <g id="text_10">
      <!-- 1 -->
      <g transform="translate(37.9575 45.40766) scale(0.1 -0.1)">
       <use xlink:href="#DejaVuSans-31"/>
      </g>
     </g>
    </g>
    <g id="ytick_6">
     <g id="line2d_10">
      <g>
       <use xlink:href="#m70c43d4c7d" x="51.32" y="14.754811" style="stroke: #000000; stroke-width: 0.8"/>
      </g>
     </g>
     <g id="text_11">
      <!-- 1.5 -->
      <g transform="translate(28.416875 18.55403) scale(0.1 -0.1)">
       <use xlink:href="#DejaVuSans-31"/>
       <use xlink:href="#DejaVuSans-2e" x="63.623047"/>
       <use xlink:href="#DejaVuSans-35" x="95.410156"/>
      </g>
     </g>
    </g>
    <g id="text_12">
     <!-- y label (kA) -->
     <g transform="translate(18.729375 122.734216) rotate(-90) scale(0.1 -0.1)">
      <defs>
       <path id="DejaVuSans-79" d="M 2059 -325 
Q 1816 -950 1584 -1140 
Q 1353 -1331 966 -1331 
L 506 -1331 
L 506 -850 
L 844 -850 
Q 1081 -850 1212 -737 
Q 1344 -625 1503 -206 
L 1606 56 
L 191 3500 
L 800 3500 
L 1894 763 
L 2988 3500 
L 3597 3500 
L 2059 -325 
z
" transform="scale(0.015625)"/>
       <path id="DejaVuSans-41" d="M 2188 4044 
L 1331 1722 
L 3047 1722 
L 2188 4044 
z
M 1831 4666 
L 2547 4666 
L 4325 0 
L 3669 0 
L 3244 1197 
L 1141 1197 
L 716 0 
L 50 0 
L 1831 4666 
z
" transform="scale(0.015625)"/>
      </defs>
      <use xlink:href="#DejaVuSans-79"/>
      <use xlink:href="#DejaVuSans-20" x="59.179688"/>
      <use xlink:href="#DejaVuSans-6c" x="90.966797"/>
      <use xlink:href="#DejaVuSans-61" x="118.75"/>
      <use xlink:href="#DejaVuSans-62" x="180.029297"/>
      <use xlink:href="#DejaVuSans-65" x="243.505859"/>
      <use xlink:href="#DejaVuSans-6c" x="305.029297"/>
      <use xlink:href="#DejaVuSans-20" x="332.8125"/>
      <use xlink:href="#DejaVuSans-28" x="364.599609"/>
      <use xlink:href="#DejaVuSans-6b" x="403.613281"/>
      <use xlink:href="#DejaVuSans-41" x="461.523438"/>
      <use xlink:href="#DejaVuSans-29" x="529.931641"/>
     </g>
    </g>
   </g>
   <g id="line2d_11">
    <path d="M 61.587273 95.221784 
L 62.788123 95.310423 
L 63.988974 95.64502 
L 65.189825 94.754982 
L 66.390675 96.445868 
L 67.591526 95.553549 
L 68.792376 97.558197 
L 69.993227 93.687316 
L 71.194078 93.072096 
L 72.394928 96.307884 
L 73.595779 93.725794 
L 74.796629 94.197891 
L 75.99748 93.531579 
L 77.198331 96.606342 
L 78.399181 91.53206 
L 79.600032 101.095119 
L 80.800883 95.507221 
L 82.001733 90.713838 
L 83.202584 101.960021 
L 84.403434 93.769491 
L 85.604285 91.120275 
L 86.805136 98.352936 
L 88.005986 94.200205 
L 89.206837 95.212089 
L 90.407687 99.313274 
L 91.608538 100.991939 
L 92.809389 85.848439 
L 94.010239 92.529184 
L 95.21109 100.267386 
L 96.41194 93.313629 
L 97.612791 103.316835 
L 98.813642 97.969235 
L 100.014492 94.751163 
L 101.215343 101.4463 
L 102.416194 90.767071 
L 103.617044 97.09694 
L 104.817895 91.431201 
L 106.018745 97.169711 
L 107.219596 80.221765 
L 108.420447 88.29367 
L 109.621297 99.500179 
L 110.822148 76.065607 
L 112.022998 102.752594 
L 113.223849 104.879529 
L 114.4247 93.589038 
L 115.62555 85.087917 
L 116.826401 97.154753 
L 118.027251 84.630831 
L 119.228102 88.810818 
L 120.428953 105.89271 
L 121.629803 96.16583 
L 122.830654 82.480989 
L 124.031505 104.314192 
L 125.232355 83.88219 
L 126.433206 82.504448 
L 127.634056 93.635751 
L 128.834907 100.911632 
L 130.035758 92.528647 
L 131.236608 105.79436 
L 132.437459 102.760455 
L 133.638309 87.934889 
L 134.83916 93.7866 
L 136.040011 111.173466 
L 137.240861 71.94332 
L 138.441712 81.06797 
L 139.642562 77.958163 
L 142.044264 113.032185 
L 143.245114 101.241852 
L 144.445965 106.473418 
L 145.646816 93.935221 
L 146.847666 125.092193 
L 148.048517 88.938389 
L 149.249367 66.515274 
L 150.450218 87.511004 
L 151.651069 115.170816 
L 152.851919 109.55845 
L 154.05277 121.135008 
L 155.25362 114.865461 
L 156.454471 97.626682 
L 157.655322 75.404751 
L 158.856172 121.585716 
L 160.057023 127.915043 
L 161.257873 110.964076 
L 162.458724 66.680474 
L 163.659575 112.488214 
L 164.860425 72.593497 
L 166.061276 106.137922 
L 167.262127 116.637665 
L 168.462977 108.128559 
L 169.663828 112.958809 
L 170.864678 95.486666 
L 172.065529 99.338442 
L 173.26638 119.131725 
L 174.46723 108.694444 
L 175.668081 134.935562 
L 176.868931 94.364885 
L 178.069782 116.443758 
L 179.270633 121.352896 
L 180.471483 83.835225 
L 181.672334 77.104324 
L 182.873184 54.714999 
L 184.074035 136.223276 
L 185.274886 121.46586 
L 186.475736 122.021865 
L 187.676587 101.548018 
L 188.877438 112.343263 
L 190.078288 83.187473 
L 191.279139 90.657125 
L 192.479989 88.807674 
L 193.68084 103.508925 
L 194.881691 88.922761 
L 196.082541 113.47849 
L 197.283392 88.770712 
L 198.484242 44.594592 
L 199.685093 126.61011 
L 200.885944 120.639105 
L 202.086794 110.560914 
L 203.287645 67.003276 
L 204.488495 50.142684 
L 206.890197 166.789687 
L 208.091047 87.573503 
L 209.291898 53.024361 
L 210.492749 95.904585 
L 211.693599 48.672963 
L 212.89445 124.710915 
L 214.0953 71.487267 
L 215.296151 68.878402 
L 216.497002 84.816217 
L 218.898703 130.788151 
L 220.099553 83.210625 
L 221.300404 107.257658 
L 222.501255 136.832858 
L 223.702105 88.945244 
L 224.902956 77.857458 
L 226.103806 95.864791 
L 227.304657 49.997061 
L 228.505508 122.696676 
L 229.706358 91.730333 
L 230.907209 21.783432 
L 233.30891 65.29506 
L 234.509761 126.313444 
L 235.710611 124.604329 
L 236.911462 69.686709 
L 238.112313 123.631111 
L 239.313163 81.51973 
L 240.514014 92.09717 
L 241.714864 94.194464 
L 242.915715 53.066561 
L 244.116566 47.709595 
L 245.317416 30.721369 
L 246.518267 87.604401 
L 247.719117 92.616458 
L 248.919968 111.920471 
L 250.120819 57.873408 
L 251.321669 145.621645 
L 252.52252 69.799072 
L 253.723371 78.975636 
L 256.125072 103.112649 
L 257.325922 58.489486 
L 258.526773 59.626466 
L 259.727624 146.816419 
L 260.928474 72.83041 
L 262.129325 138.562708 
L 263.330175 108.653743 
L 264.531026 25.575913 
L 265.731877 62.569619 
L 266.932727 139.19694 
L 266.932727 139.19694 
" clip-path="url(#p462cbbdb11)" style="fill: none; stroke: #1f77b4; stroke-width: 1.5; stroke-linecap: square"/>
   </g>
   <g id="line2d_12">
    <path d="M 61.587273 95.277598 
L 62.788123 95.392955 
L 65.189825 95.332891 
L 66.390675 94.215748 
L 67.591526 96.145 
L 68.792376 96.629061 
L 69.993227 95.816598 
L 71.194078 97.050043 
L 72.394928 95.020538 
L 73.595779 96.765656 
L 74.796629 97.204845 
L 75.99748 96.612794 
L 77.198331 92.115103 
L 78.399181 94.23355 
L 79.600032 94.496808 
L 80.800883 95.238785 
L 83.202584 98.95495 
L 84.403434 96.356981 
L 85.604285 88.639688 
L 86.805136 101.542685 
L 88.005986 100.644531 
L 89.206837 100.239379 
L 90.407687 94.549854 
L 91.608538 98.812436 
L 92.809389 99.30843 
L 94.010239 93.024874 
L 95.21109 89.147711 
L 96.41194 89.289286 
L 97.612791 86.246808 
L 98.813642 84.591882 
L 100.014492 99.639582 
L 101.215343 102.71424 
L 102.416194 96.928088 
L 103.617044 86.886931 
L 104.817895 99.976167 
L 106.018745 75.470365 
L 107.219596 97.517557 
L 108.420447 100.464551 
L 109.621297 92.820501 
L 110.822148 88.336796 
L 112.022998 80.208014 
L 113.223849 109.433741 
L 114.4247 87.99917 
L 115.62555 87.368348 
L 116.826401 85.634142 
L 118.027251 94.849679 
L 119.228102 77.070155 
L 120.428953 108.591503 
L 121.629803 102.737164 
L 122.830654 91.12961 
L 124.031505 86.815118 
L 125.232355 112.599911 
L 126.433206 82.391408 
L 127.634056 119.103204 
L 128.834907 81.125462 
L 130.035758 99.789585 
L 131.236608 102.862395 
L 132.437459 99.460534 
L 133.638309 107.476746 
L 134.83916 78.335045 
L 136.040011 116.139914 
L 137.240861 99.282758 
L 138.441712 89.392747 
L 139.642562 94.712535 
L 140.843413 121.919952 
L 142.044264 113.694005 
L 143.245114 104.354224 
L 144.445965 93.575675 
L 145.646816 114.340612 
L 146.847666 51.592327 
L 148.048517 93.48092 
L 149.249367 84.539081 
L 150.450218 95.444977 
L 151.651069 80.272879 
L 152.851919 82.416339 
L 154.05277 90.160857 
L 155.25362 95.860054 
L 156.454471 120.278346 
L 157.655322 81.934567 
L 158.856172 135.721419 
L 160.057023 86.637057 
L 161.257873 94.122501 
L 162.458724 83.444652 
L 163.659575 84.144377 
L 164.860425 121.077975 
L 166.061276 67.349782 
L 167.262127 116.760892 
L 169.663828 94.497701 
L 170.864678 125.109483 
L 172.065529 74.432865 
L 173.26638 59.793281 
L 174.46723 106.690674 
L 175.668081 106.17332 
L 176.868931 67.502536 
L 178.069782 67.986166 
L 179.270633 82.987573 
L 180.471483 81.290989 
L 181.672334 121.51619 
L 182.873184 96.42036 
L 184.074035 102.405933 
L 185.274886 73.735335 
L 186.475736 142.374212 
L 187.676587 114.755298 
L 188.877438 132.14368 
L 190.078288 92.594633 
L 191.279139 104.466888 
L 192.479989 87.138172 
L 193.68084 80.385736 
L 194.881691 64.322034 
L 196.082541 96.638585 
L 197.283392 67.207328 
L 198.484242 95.381786 
L 199.685093 94.951435 
L 200.885944 103.759983 
L 202.086794 74.532087 
L 203.287645 65.820715 
L 204.488495 72.594055 
L 205.689346 105.657333 
L 206.890197 61.530886 
L 208.091047 139.947891 
L 209.291898 107.475143 
L 210.492749 96.69736 
L 211.693599 107.030151 
L 212.89445 41.752797 
L 214.0953 164.490476 
L 215.296151 102.888592 
L 216.497002 146.828646 
L 217.697852 70.418212 
L 218.898703 155.483379 
L 220.099553 111.885792 
L 221.300404 123.41813 
L 222.501255 64.47975 
L 223.702105 95.188092 
L 224.902956 100.137408 
L 226.103806 84.208876 
L 227.304657 150.280895 
L 228.505508 56.139546 
L 229.706358 141.478625 
L 230.907209 145.495314 
L 232.10806 112.754556 
L 233.30891 75.802143 
L 234.509761 60.87127 
L 235.710611 127.088344 
L 236.911462 91.686426 
L 238.112313 88.782829 
L 239.313163 49.732731 
L 240.514014 43.221943 
L 241.714864 108.631298 
L 242.915715 69.630118 
L 244.116566 56.550022 
L 245.317416 110.222033 
L 246.518267 64.423246 
L 247.719117 79.509663 
L 248.919968 96.048664 
L 250.120819 126.3308 
L 251.321669 92.975564 
L 252.52252 145.845325 
L 253.723371 87.988924 
L 254.924221 45.958224 
L 256.125072 61.485358 
L 257.325922 74.435674 
L 258.526773 93.614662 
L 259.727624 97.260436 
L 260.928474 131.000401 
L 262.129325 94.896156 
L 263.330175 105.237685 
L 264.531026 99.70474 
L 265.731877 152.122339 
L 266.932727 73.869749 
L 266.932727 73.869749 
" clip-path="url(#p462cbbdb11)" style="fill: none; stroke: #ff7f0e; stroke-width: 1.5; stroke-linecap: square"/>
   </g>
   <g id="patch_3">
    <path d="M 51.32 174.04 
L 51.32 14.533119 
" style="fill: none; stroke: #000000; stroke-width: 0.8; stroke-linejoin: miter; stroke-linecap: square"/>
   </g>
   <g id="patch_4">
    <path d="M 277.2 174.04 
L 277.2 14.533119 
" style="fill: none; stroke: #000000; stroke-width: 0.8; stroke-linejoin: miter; stroke-linecap: square"/>
   </g>
   <g id="patch_5">
    <path d="M 51.32 174.04 
L 277.2 174.04 
" style="fill: none; stroke: #000000; stroke-width: 0.8; stroke-linejoin: miter; stroke-linecap: square"/>
   </g>
   <g id="patch_6">
    <path d="M 51.32 14.533119 
L 277.2 14.533119 
" style="fill: none; stroke: #000000; stroke-width: 0.8; stroke-linejoin: miter; stroke-linecap: square"/>
   </g>
   <g id="legend_1">
    <g id="patch_7">
     <path d="M 58.32 51.889369 
L 97.180937 51.889369 
Q 99.180937 51.889369 99.180937 49.889369 
L 99.180937 21.533119 
Q 99.180937 19.533119 97.180937 19.533119 
L 58.32 19.533119 
Q 56.32 19.533119 56.32 21.533119 
L 56.32 49.889369 
Q 56.32 51.889369 58.32 51.889369 
z
" style="fill: #ffffff; stroke: #cccccc; stroke-linejoin: miter"/>
    </g>
    <g id="line2d_13">
     <path d="M 60.32 27.631556 
L 70.32 27.631556 
L 80.32 27.631556 
" style="fill: none; stroke: #1f77b4; stroke-width: 1.5; stroke-linecap: square"/>
    </g>
    <g id="text_13">
     <!-- A -->
     <g transform="translate(88.32 31.131556) scale(0.1 -0.1)">
      <use xlink:href="#DejaVuSans-41"/>
     </g>
    </g>
    <g id="line2d_14">
     <path d="M 60.32 42.309681 
L 70.32 42.309681 
L 80.32 42.309681 
" style="fill: none; stroke: #ff7f0e; stroke-width: 1.5; stroke-linecap: square"/>
    </g>
    <g id="text_14">
     <!-- B -->
     <g transform="translate(88.32 45.809681) scale(0.1 -0.1)">
      <defs>
       <path id="DejaVuSans-42" d="M 1259 2228 
L 1259 519 
L 2272 519 
Q 2781 519 3026 730 
Q 3272 941 3272 1375 
Q 3272 1813 3026 2020 
Q 2781 2228 2272 2228 
L 1259 2228 
z
M 1259 4147 
L 1259 2741 
L 2194 2741 
Q 2656 2741 2882 2914 
Q 3109 3088 3109 3444 
Q 3109 3797 2882 3972 
Q 2656 4147 2194 4147 
L 1259 4147 
z
M 628 4666 
L 2241 4666 
Q 2963 4666 3353 4366 
Q 3744 4066 3744 3513 
Q 3744 3084 3544 2831 
Q 3344 2578 2956 2516 
Q 3422 2416 3680 2098 
Q 3938 1781 3938 1306 
Q 3938 681 3513 340 
Q 3088 0 2303 0 
L 628 0 
L 628 4666 
z
" transform="scale(0.015625)"/>
      </defs>
      <use xlink:href="#DejaVuSans-42"/>
     </g>
    </g>
   </g>
  </g>
  <g id="axes_2">
   <g id="patch_8">
    <path d="M 7.2 210.312 
L 13.536 206.28 
L 7.2 202.248 
z
" clip-path="url(#pa4d7e54f43)" style="fill: #7f7f7f; stroke: #7f7f7f; stroke-linejoin: miter"/>
   </g>
   <g id="patch_9">
    <path d="M 14.688 209.736 
L 15.84 209.736 
L 15.84 202.824 
L 14.688 202.824 
z
" clip-path="url(#pa4d7e54f43)" style="stroke: #000000; stroke-linejoin: miter"/>
   </g>
   <g id="patch_10">
    <path d="M 17.568 209.736 
L 18.72 209.736 
L 18.72 202.824 
L 17.568 202.824 
z
" clip-path="url(#pa4d7e54f43)" style="stroke: #000000; stroke-linejoin: miter"/>
   </g>
   <g id="matplotlib.axis_3"/>
   <g id="matplotlib.axis_4"/>
  </g>
  <g id="axes_3">
   <g id="patch_11">
    <path d="M 24 209.64 
L 30.72 209.64 
L 30.72 202.92 
L 24 202.92 
z
" clip-path="url(#p30f846c4b2)" style="fill: #7f7f7f; stroke: #7f7f7f; stroke-linejoin: miter"/>
   </g>
   <g id="matplotlib.axis_5"/>
   <g id="matplotlib.axis_6"/>
  </g>
  <g id="axes_4">
   <g id="patch_12">
    <path d="M 279.36 202.248 
L 280.512 204.552 
L 279.648 204.552 
L 279.648 206.28 
L 279.072 206.28 
L 279.072 204.552 
L 278.208 204.552 
z
" clip-path="url(#p1c73094461)" style="stroke: #000000; stroke-linejoin: miter"/>
   </g>
   <g id="patch_13">
    <path d="M 279.36 210.312 
L 278.208 208.008 
L 279.072 208.008 
L 279.072 206.28 
L 279.648 206.28 
L 279.648 208.008 
L 280.512 208.008 
z
" clip-path="url(#p1c73094461)" style="stroke: #000000; stroke-linejoin: miter"/>
   </g>
   <g id="matplotlib.axis_7"/>
   <g id="matplotlib.axis_8"/>
  </g>
 </g>
 <defs>
  <clipPath id="p462cbbdb11">
   <rect x="51.32" y="14.533119" width="225.88" height="159.506881"/>
  </clipPath>
  <clipPath id="pa4d7e54f43">
   <rect x="7.2" y="202.248" width="11.52" height="8.064"/>
  </clipPath>
  <clipPath id="p30f846c4b2">
   <rect x="23.04" y="201.96" width="8.64" height="8.64"/>
  </clipPath>
  <clipPath id="p1c73094461">
   <rect x="273.6" y="202.248" width="11.52" height="8.064"/>
  </clipPath>
 </defs>
</svg>
